{
 "cards_label": "",
 "category": "Places",
 "charts": [],
 "creation": "2023-05-20 11:40:54.252567",
 "developer_mode_only": 0,
 "disable_user_customization": 0,
 "docstatus": 0,
 "doctype": "Workspace",
 "extends": "Accountant alRamat-accountant@dubi.com",
 "extends_another_page": 0,
 "hide_custom": 0,
 "idx": 0,
 "is_default": 0,
 "is_standard": 1,
 "label": "Accountant alRamat",
 "links": [
  {
   "hidden": 0,
   "is_query_report": 0,
   "label": "Sales order",
   "link_to": "Sales Order",
   "link_type": "DocType",
   "onboard": 0,
   "type": "Link"
  },
  {
   "hidden": 0,
   "is_query_report": 0,
   "label": "Sales Invoice",
   "link_to": "Sales Invoice",
   "link_type": "DocType",
   "onboard": 0,
   "type": "Link"
  },
  {
   "hidden": 0,
   "is_query_report": 0,
   "label": "Ticket Entry",
   "link_to": "ticket Entry",
   "link_type": "DocType",
   "onboard": 0,
   "type": "Link"
  },
  {
   "hidden": 0,
   "is_query_report": 0,
   "label": "Payment entry",
   "link_to": "Payment Entry",
   "link_type": "DocType",
   "onboard": 0,
   "type": "Link"
  },
  {
   "hidden": 0,
   "is_query_report": 0,
   "label": "Customer Report",
   "link_to": "Accounts Receivable",
   "link_type": "Report",
   "onboard": 0,
   "type": "Link"
  },
  {
   "hidden": 0,
   "is_query_report": 0,
   "label": "supplier Report",
   "link_to": "Accounts Payable",
   "link_type": "Report",
   "onboard": 0,
   "type": "Link"
  }
 ],
 "modified": "2023-05-20 12:09:38.330239",
 "modified_by": "Administrator",
 "module": "Pivottech Alramat",
 "name": "Accountant alRamat",
 "onboarding": "",
 "owner": "Administrator",
 "pin_to_bottom": 0,
 "pin_to_top": 1,
 "shortcuts": []
}